transaction_id: 9fbf8159-67da-4ab8-9897-c52a5b117365 , transaction_item: , machine_name: RPA.2 , process_name: Closing_MI BOT, start_time: 02/19/2021 20:45:41 , transaction_status: InProgress
transaction_id: 6cac4067-1411-4507-a6d0-ebf0cc63aabd , transaction_item: , machine_name: RPA.2 , process_name: Closing_MI BOT, start_time: 02/19/2021 20:46:21 , transaction_status: InProgress
transaction_id: a32d4f67-43bb-40c4-9d26-de91169a2eca , transaction_item: , machine_name: RPA.2 , process_name: Closing_MI BOT, start_time: 02/19/2021 20:47:00 , transaction_status: InProgress
