transaction_id: c11d7144-ed9f-4da6-836f-eee1fed57fd5 , transaction_item:330431218 , machine_name: RPA.2 , process_name: Closing_MI BOT, start_time: 12/14/2020 07:37:35 , transaction_status: InProgress
transaction_id: ec6123bc-d109-46ed-9dc6-5e28de46842a , transaction_item:330431218 , machine_name: RPA.2 , process_name: Closing_MI BOT, start_time: 12/14/2020 07:40:48 , transaction_status: InProgress
transaction_id: 695aa80c-ec3a-489d-8acc-9e0430c8ba5c , transaction_item:330431218 , machine_name: RPA.2 , process_name: Closing_MI BOT, start_time: 12/14/2020 07:49:44 , transaction_status: InProgress
transaction_id: 12efc608-9c4d-4935-b64d-b39d954a63d7 , transaction_item:330431218 , machine_name: RPA.2 , process_name: Closing_MI BOT, start_time: 12/14/2020 07:52:50 , transaction_status: InProgress
transaction_id: 42b74f19-55c8-40e4-8b0e-74448da04440 , transaction_item:330431218 , machine_name: RPA.2 , process_name: Closing_MI BOT, start_time: 12/14/2020 08:08:08 , transaction_status: InProgress
transaction_id: d0a5b7d6-79e2-4d2f-ada0-7fc1ab626b2a , transaction_item:330442480 , machine_name: RPA.2 , process_name: Closing_MI BOT, start_time: 12/14/2020 10:51:26 , transaction_status: InProgress
transaction_id: 2ef15b5d-14c0-44a3-b316-fd4231af126b , transaction_item:330442480 , machine_name: RPA.2 , process_name: Closing_MI BOT, start_time: 12/14/2020 10:54:17 , transaction_status: InProgress
transaction_id: 3536b4b2-c6bc-4898-a1be-e1dee96df3ab , transaction_item:330442557 , machine_name: RPA.2 , process_name: Closing_MI BOT, start_time: 12/14/2020 10:55:02 , transaction_status: InProgress
transaction_id: 831a220e-911b-473e-825e-ad6886c9b9a2 , transaction_item:330443771 , machine_name: RPA.2 , process_name: Closing_MI BOT, start_time: 12/14/2020 10:55:42 , transaction_status: InProgress
transaction_id: 4c7b4f77-ca43-44d5-94d5-ccd6a201a6dc , transaction_item:330443961 , machine_name: RPA.2 , process_name: Closing_MI BOT, start_time: 12/14/2020 10:56:19 , transaction_status: InProgress
transaction_id: 54855633-bf65-4dfa-8547-be0be556c3b6 , transaction_item:330444139 , machine_name: RPA.2 , process_name: Closing_MI BOT, start_time: 12/14/2020 10:56:55 , transaction_status: InProgress
transaction_id: 56f7be6c-225e-469f-9e84-ea1939386532 , transaction_item:330444981 , machine_name: RPA.2 , process_name: Closing_MI BOT, start_time: 12/14/2020 10:57:32 , transaction_status: InProgress
transaction_id: 9b49545f-9eeb-4fd5-937c-1a08b2668fac , transaction_item:330445693 , machine_name: RPA.2 , process_name: Closing_MI BOT, start_time: 12/14/2020 10:58:09 , transaction_status: InProgress
transaction_id: ef1f162e-352e-4695-b43d-584dea6e82cd , transaction_item:330445904 , machine_name: RPA.2 , process_name: Closing_MI BOT, start_time: 12/14/2020 10:58:46 , transaction_status: InProgress
transaction_id: 9da8cdc2-7bee-4f01-9f01-bff6671d19ac , transaction_item:330451128 , machine_name: RPA.2 , process_name: Closing_MI BOT, start_time: 12/14/2020 11:21:25 , transaction_status: InProgress
transaction_id: 0faca1a0-ad10-4156-83bb-fb47c7b29cf3 , transaction_item:330451128 , machine_name: RPA.2 , process_name: Closing_MI BOT, start_time: 12/14/2020 11:32:37 , transaction_status: InProgress
transaction_id: 529e8d36-6838-464a-9da2-4c1ea2bea71b , transaction_item:330470270 , machine_name: RPA.2 , process_name: Closing_MI BOT, start_time: 12/14/2020 12:08:40 , transaction_status: InProgress
transaction_id: 6465d2c2-2246-4f66-b759-cf89c37e4b34 , transaction_item:330783727 , machine_name: RPA.2 , process_name: Closing_MI BOT, start_time: 12/14/2020 15:00:51 , transaction_status: InProgress
transaction_id: d7bc183f-f69a-4f6d-a088-f5cc70feaa1e , transaction_item:330784102 , machine_name: RPA.2 , process_name: Closing_MI BOT, start_time: 12/14/2020 15:01:39 , transaction_status: InProgress
transaction_id: 6d90a64e-ff47-497e-abd6-853d9b2c1e53 , transaction_item:330784300 , machine_name: RPA.2 , process_name: Closing_MI BOT, start_time: 12/14/2020 15:02:18 , transaction_status: InProgress
transaction_id: a5c9a532-e3c2-49d8-822a-86a799889240 , transaction_item:330784305 , machine_name: RPA.2 , process_name: Closing_MI BOT, start_time: 12/14/2020 15:02:56 , transaction_status: InProgress
transaction_id: 4aaf533c-16d8-4300-81b5-6d3f0c55446e , transaction_item:330784306 , machine_name: RPA.2 , process_name: Closing_MI BOT, start_time: 12/14/2020 15:03:34 , transaction_status: InProgress
transaction_id: 27fef370-c41d-4b2d-86f1-cdbcfa63e2aa , transaction_item:330784560 , machine_name: RPA.2 , process_name: Closing_MI BOT, start_time: 12/14/2020 15:04:13 , transaction_status: InProgress
transaction_id: a52f9b7a-c3e4-4448-8778-31713f4951ea , transaction_item:330784637 , machine_name: RPA.2 , process_name: Closing_MI BOT, start_time: 12/14/2020 15:26:32 , transaction_status: InProgress
transaction_id: 38290ea6-baed-4a8e-9aee-8b2079da990a , transaction_item:330784770 , machine_name: RPA.2 , process_name: Closing_MI BOT, start_time: 12/14/2020 15:37:38 , transaction_status: InProgress
transaction_id: 22aac7df-c54d-4ced-9547-9126616bf166 , transaction_item:330784913 , machine_name: RPA.2 , process_name: Closing_MI BOT, start_time: 12/14/2020 15:38:27 , transaction_status: InProgress
transaction_id: 3b0f8d43-d261-44db-b281-45e562f606f8 , transaction_item:330785592 , machine_name: RPA.2 , process_name: Closing_MI BOT, start_time: 12/14/2020 15:44:49 , transaction_status: InProgress
transaction_id: cf033362-a24a-450e-94f9-88b169cb6623 , transaction_item:330785861 , machine_name: RPA.2 , process_name: Closing_MI BOT, start_time: 12/14/2020 15:45:40 , transaction_status: InProgress
transaction_id: fe5a23f2-ce9c-424e-8561-fad6e91d9a3a , transaction_item:330786292 , machine_name: RPA.2 , process_name: Closing_MI BOT, start_time: 12/14/2020 15:46:22 , transaction_status: InProgress
transaction_id: cd1951a4-973f-4c6d-9771-c8f372fba888 , transaction_item:330786361 , machine_name: RPA.2 , process_name: Closing_MI BOT, start_time: 12/14/2020 15:47:03 , transaction_status: InProgress
transaction_id: e4d0f4a2-4aeb-49b4-a8a3-9e826c51b8c6 , transaction_item:330786362 , machine_name: RPA.2 , process_name: Closing_MI BOT, start_time: 12/14/2020 15:47:43 , transaction_status: InProgress
transaction_id: b50a8e5a-f48d-4771-809a-c634104c5034 , transaction_item:330786751 , machine_name: RPA.2 , process_name: Closing_MI BOT, start_time: 12/14/2020 15:48:24 , transaction_status: InProgress
transaction_id: 1adc21ce-1c91-49a5-9ec8-9e558c33252e , transaction_item:330786867 , machine_name: RPA.2 , process_name: Closing_MI BOT, start_time: 12/14/2020 15:49:05 , transaction_status: InProgress
transaction_id: 2037c806-91b3-4316-b2c5-3267a68564bd , transaction_item:330787112 , machine_name: RPA.2 , process_name: Closing_MI BOT, start_time: 12/14/2020 15:49:46 , transaction_status: InProgress
transaction_id: 6e0df195-f451-4666-b51c-f569b8dd8f7f , transaction_item:330787363 , machine_name: RPA.2 , process_name: Closing_MI BOT, start_time: 12/14/2020 15:50:27 , transaction_status: InProgress
transaction_id: 73062de4-423b-473d-a10d-8ba0a6e645ae , transaction_item:330787474 , machine_name: RPA.2 , process_name: Closing_MI BOT, start_time: 12/14/2020 15:51:08 , transaction_status: InProgress
transaction_id: 45314adb-25eb-4d95-982b-f294e75fbc00 , transaction_item:330787731 , machine_name: RPA.2 , process_name: Closing_MI BOT, start_time: 12/14/2020 15:51:49 , transaction_status: InProgress
transaction_id: 0bfe315b-8cf7-42a6-924c-7ee540e65c4c , transaction_item:330787831 , machine_name: RPA.2 , process_name: Closing_MI BOT, start_time: 12/14/2020 15:52:29 , transaction_status: InProgress
transaction_id: 1f838289-92fc-4c24-a1ab-cbb4785dabbc , transaction_item:330788116 , machine_name: RPA.2 , process_name: Closing_MI BOT, start_time: 12/14/2020 15:53:10 , transaction_status: InProgress
transaction_id: 348736f6-039f-49fe-aa1a-cb0cfe99938a , transaction_item:330788297 , machine_name: RPA.2 , process_name: Closing_MI BOT, start_time: 12/14/2020 15:58:26 , transaction_status: InProgress
transaction_id: 93406078-75c8-4179-9622-5409c63c7833 , transaction_item:330788297 , machine_name: RPA.2 , process_name: Closing_MI BOT, start_time: 12/14/2020 16:01:57 , transaction_status: InProgress
transaction_id: 1482b926-4d20-4620-8106-26568f9d1814 , transaction_item:330788407 , machine_name: RPA.2 , process_name: Closing_MI BOT, start_time: 12/14/2020 16:03:59 , transaction_status: InProgress
transaction_id: 78aa8746-db91-447d-ba18-2c431e37db91 , transaction_item:330788448 , machine_name: RPA.2 , process_name: Closing_MI BOT, start_time: 12/14/2020 16:04:41 , transaction_status: InProgress
transaction_id: e627070d-9fdf-4722-93f5-4c8a4a66d31d , transaction_item:330788719 , machine_name: RPA.2 , process_name: Closing_MI BOT, start_time: 12/14/2020 16:05:22 , transaction_status: InProgress
transaction_id: b003e36a-99c5-4cfb-8a23-68fbd282d70e , transaction_item:330788720 , machine_name: RPA.2 , process_name: Closing_MI BOT, start_time: 12/14/2020 16:06:05 , transaction_status: InProgress
transaction_id: 8a68ac91-0bcb-4125-8c7f-f0e70a06ec95 , transaction_item:330788721 , machine_name: RPA.2 , process_name: Closing_MI BOT, start_time: 12/14/2020 16:06:47 , transaction_status: InProgress
transaction_id: 9cae02f2-20a8-40b1-a8d3-4cf3b96c5df6 , transaction_item:330788921 , machine_name: RPA.2 , process_name: Closing_MI BOT, start_time: 12/14/2020 16:07:29 , transaction_status: InProgress
transaction_id: cff86f1f-9fbb-4997-9eb0-5053a23751c0 , transaction_item:330788977 , machine_name: RPA.2 , process_name: Closing_MI BOT, start_time: 12/14/2020 16:08:10 , transaction_status: InProgress
transaction_id: 9b598fb5-7b00-42a4-bcfa-2172e593510f , transaction_item:330789955 , machine_name: RPA.2 , process_name: Closing_MI BOT, start_time: 12/14/2020 16:08:53 , transaction_status: InProgress
transaction_id: b9f08654-5c19-4f0f-bd07-50ccc44fe162 , transaction_item:330790938 , machine_name: RPA.2 , process_name: Closing_MI BOT, start_time: 12/14/2020 16:09:34 , transaction_status: InProgress
transaction_id: 041dfc99-9edd-441f-947d-58d6e61913bf , transaction_item:330792505 , machine_name: RPA.2 , process_name: Closing_MI BOT, start_time: 12/14/2020 16:10:17 , transaction_status: InProgress
transaction_id: 5323f468-9bf8-415e-8149-ce03ec461b44 , transaction_item:330907871 , machine_name: RPA.2 , process_name: Closing_MI BOT, start_time: 12/14/2020 17:19:25 , transaction_status: InProgress
transaction_id: d75fa9c1-9e46-4cd5-83d7-2e55b23723dc , transaction_item:330907871 , machine_name: RPA.2 , process_name: Closing_MI BOT, start_time: 12/14/2020 17:27:51 , transaction_status: InProgress
transaction_id: b3a54d29-574f-4ceb-8edc-7704b1b8a21f , transaction_item:330907871 , machine_name: RPA.2 , process_name: Closing_MI BOT, start_time: 12/14/2020 17:35:43 , transaction_status: InProgress
transaction_id: 0956c32b-1eca-4630-8891-0cbd41d8fa77 , transaction_item:330911581 , machine_name: RPA.2 , process_name: Closing_MI BOT, start_time: 12/14/2020 17:39:19 , transaction_status: InProgress
transaction_id: 6eade6ad-8581-4341-805b-5762e02a5a4c , transaction_item:330912444 , machine_name: RPA.2 , process_name: Closing_MI BOT, start_time: 12/14/2020 17:40:03 , transaction_status: InProgress
transaction_id: 944d48cc-ef06-451c-9809-15909b975651 , transaction_item:330318502 , machine_name: RPA.2 , process_name: Closing_MI BOT, start_time: 12/14/2020 17:40:38 , transaction_status: InProgress
transaction_id: b694f9dc-f010-4265-ac77-ec8e87cb16bc , transaction_item:330915722 , machine_name: RPA.2 , process_name: Closing_MI BOT, start_time: 12/14/2020 17:41:13 , transaction_status: InProgress
transaction_id: 3c823e11-0302-4ee0-9528-a9c87258a7d5 , transaction_item:330916854 , machine_name: RPA.2 , process_name: Closing_MI BOT, start_time: 12/14/2020 17:41:48 , transaction_status: InProgress
transaction_id: b3fdbbf3-34fa-4cec-ba4d-b91daec446f9 , transaction_item:330916856 , machine_name: RPA.2 , process_name: Closing_MI BOT, start_time: 12/14/2020 17:42:22 , transaction_status: InProgress
