transaction_id: a106213c-8abd-4bed-b3ea-7744823be4a4 , transaction_item: , machine_name: RPA.2 , process_name: Closing_MI BOT, start_time: 02/03/2021 20:45:46 , transaction_status: InProgress
transaction_id: f195e2e6-edee-4ca9-8a13-313720ae4b82 , transaction_item: , machine_name: RPA.2 , process_name: Closing_MI BOT, start_time: 02/03/2021 20:46:30 , transaction_status: InProgress
transaction_id: f41ad1dc-2645-4673-9630-da0d19515335 , transaction_item: , machine_name: RPA.2 , process_name: Closing_MI BOT, start_time: 02/03/2021 20:47:10 , transaction_status: InProgress
