transaction_id: c955f50c-a07c-4f5a-836a-341803cf607f , transaction_item: , machine_name: RPA.2 , process_name: Closing_MI BOT, start_time: 12/25/2020 07:55:17 , transaction_status: InProgress
transaction_id: 4a0b3ccc-e693-4f94-b6b2-1c20749e27b2 , transaction_item: , machine_name: RPA.2 , process_name: Closing_MI BOT, start_time: 12/25/2020 07:55:55 , transaction_status: InProgress
transaction_id: c82bbf42-efa2-4e8f-9757-558d4296d8f1 , transaction_item: , machine_name: RPA.2 , process_name: Closing_MI BOT, start_time: 12/25/2020 07:56:33 , transaction_status: InProgress
transaction_id: bf31edae-58dd-452f-8cc9-27289e59fe49 , transaction_item: , machine_name: RPA.2 , process_name: Closing_MI BOT, start_time: 12/25/2020 08:05:36 , transaction_status: InProgress
transaction_id: b5c6233c-6f43-4a8d-9dec-b48ccc0ac2d5 , transaction_item: , machine_name: RPA.2 , process_name: Closing_MI BOT, start_time: 12/25/2020 08:06:13 , transaction_status: InProgress
transaction_id: ec5c2b7a-b198-4637-a283-8519be1d8936 , transaction_item: , machine_name: RPA.2 , process_name: Closing_MI BOT, start_time: 12/25/2020 08:06:50 , transaction_status: InProgress
