transaction_id: 1f626c9a-619d-459b-a242-65fead59d48f , transaction_item:322177430 , machine_name: Shreya.Rao , process_name: Closing_MI BOT, start_time: 11/20/2020 10:11:45 , transaction_status: InProgress
transaction_id: bcc084b9-8f8f-4e5e-b111-bd9b61a43fbb , transaction_item:322185155 , machine_name: Shreya.Rao , process_name: Closing_MI BOT, start_time: 11/20/2020 10:12:19 , transaction_status: InProgress
transaction_id: 4ee025f7-a36c-4e46-b223-a6d6e9099882 , transaction_item:322185155 , machine_name: Shreya.Rao , process_name: Closing_MI BOT, start_time: 11/20/2020 10:14:18 , transaction_status: InProgress
transaction_id: a2cef2e0-6ca7-44cc-b841-1488635682e9 , transaction_item:322185503 , machine_name: Shreya.Rao , process_name: Closing_MI BOT, start_time: 11/20/2020 10:14:50 , transaction_status: InProgress
transaction_id: 95347a4a-6ed8-419f-a4b4-6accf671df2f , transaction_item:322191637 , machine_name: Shreya.Rao , process_name: Closing_MI BOT, start_time: 11/20/2020 10:15:14 , transaction_status: InProgress
transaction_id: 60cc484e-bb84-4b56-a28f-5c361bea9403 , transaction_item:322191637 , machine_name: Shreya.Rao , process_name: Closing_MI BOT, start_time: 11/20/2020 10:17:21 , transaction_status: InProgress
transaction_id: 285d7662-9baa-494a-a9e8-2fdd88030119 , transaction_item:322191637 , machine_name: Shreya.Rao , process_name: Closing_MI BOT, start_time: 11/20/2020 10:19:40 , transaction_status: InProgress
transaction_id: ddb75143-8356-47c9-a176-77b26a99441a , transaction_item:322192641 , machine_name: Shreya.Rao , process_name: Closing_MI BOT, start_time: 11/20/2020 10:20:21 , transaction_status: InProgress
transaction_id: 8dcba7dc-afb5-4569-9ffa-4eb323622cd2 , transaction_item: , machine_name: Shreya.Rao , process_name: Closing_MI BOT, start_time: 11/20/2020 10:21:00 , transaction_status: InProgress
transaction_id: 41fcefa8-9bec-4a14-85ac-635e40751407 , transaction_item: , machine_name: Shreya.Rao , process_name: Closing_MI BOT, start_time: 11/20/2020 10:21:40 , transaction_status: InProgress
transaction_id: a4ad756d-12b7-4294-a615-145e901ddfc3 , transaction_item: , machine_name: Shreya.Rao , process_name: Closing_MI BOT, start_time: 11/20/2020 10:22:20 , transaction_status: InProgress
transaction_id: 79152f40-df46-435f-be06-f1dec2ba8964 , transaction_item:322177430 , machine_name: Shreya.Rao , process_name: Closing_MI BOT, start_time: 11/20/2020 11:41:05 , transaction_status: InProgress
transaction_id: 5a129c15-d932-44d5-99bb-f9f254b7cffa , transaction_item:322185155 , machine_name: Shreya.Rao , process_name: Closing_MI BOT, start_time: 11/20/2020 11:41:38 , transaction_status: InProgress
transaction_id: 5fdd070b-3fd4-4ff8-82ca-088cc49f9b05 , transaction_item:322185503 , machine_name: Shreya.Rao , process_name: Closing_MI BOT, start_time: 11/20/2020 11:42:03 , transaction_status: InProgress
transaction_id: b5a8abf9-7252-4ab8-9b2b-b1b1990e7f75 , transaction_item:322191637 , machine_name: Shreya.Rao , process_name: Closing_MI BOT, start_time: 11/20/2020 11:42:26 , transaction_status: InProgress
transaction_id: 531b5406-fc9a-45ca-bf11-fe6a1711d14d , transaction_item:322192641 , machine_name: Shreya.Rao , process_name: Closing_MI BOT, start_time: 11/20/2020 11:42:58 , transaction_status: InProgress
transaction_id: 3b2f3005-ac90-4580-9243-fd52959b04ad , transaction_item: , machine_name: Shreya.Rao , process_name: Closing_MI BOT, start_time: 11/20/2020 11:43:30 , transaction_status: InProgress
